10	0	360	200	440
10	0	670	200	750
11	0	0	200	80
11	0	110	200	190
115	0	35	200	115
116	0	105	200	185
117	0	255	200	335
118	0	325	200	405
119	0	345	200	425
12	0	85	200	165
120	0	80	200	160
121	0	115	200	195
122	0	215	200	295
123	0	260	200	340
124	0	405	200	485
125	0	420	200	500
126	0	355	200	435
127	0	285	200	365
128	0	50	200	130
129	0	430	200	510
13	0	285	200	365
13	0	440	200	520
130	0	365	200	445
131	0	160	200	240
132	0	395	200	475
132	0	545	200	625
133	0	65	200	145
133	0	360	200	440
133	0	505	200	585
134	0	45	200	125
135	0	140	200	220
135	0	370	200	450
135	0	510	200	590
136	0	130	200	210
136	0	355	200	435
136	0	500	200	580
137	0	45	200	125
137	0	340	200	420
138	0	15	200	95
138	0	165	200	245
138	0	265	200	345
138	0	480	200	560
139	0	20	200	100
139	0	180	200	260
139	0	280	200	360
139	0	525	200	605
14	0	5	200	85
14	0	275	200	355
14	0	500	200	580
140	0	105	200	185
141	0	150	200	230
142	0	290	200	370
143	0	345	200	425
144	0	420	200	500
145	0	275	200	355
146	0	265	200	345
147	0	270	200	350
148	0	305	200	385
149	0	330	200	410
150	0	130	200	210
151	0	205	200	285
152	0	225	200	305
153	0	265	200	345
154	0	350	200	430
155	0	85	200	165
16	0	175	200	255
16	0	415	200	495
163	0	65	200	145
163	0	280	200	360
164	0	80	200	160
164	0	295	200	375
165	0	100	200	180
166	0	95	200	175
167	0	185	200	265
168	0	225	200	305
169	0	420	200	500
170	0	620	200	700
171	0	55	200	135
172	0	90	200	170
173	0	100	200	180
174	0	170	200	250
175	0	465	200	545
176	0	130	200	210
177	0	250	200	330
178	0	40	200	120
178	0	345	200	425
179	0	40	200	120
179	0	355	200	435
18	0	30	200	110
181	0	100	200	180
182	0	180	200	260
182	0	480	200	560
183	0	185	200	265
183	0	495	200	575
184	0	375	200	455
185	0	470	200	550
186	0	500	200	580
187	0	320	200	400
188	0	155	200	235
189	0	90	200	170
190	0	190	200	270
191	0	270	200	350
191	0	615	200	695
192	0	285	200	365
193	0	410	200	490
194	0	265	200	345
195	0	225	200	305
196	0	325	200	405
197	0	475	200	555
198	0	490	200	570
199	0	430	200	510
20	0	445	200	525
200	0	380	200	460
201	0	200	200	280
202	0	145	200	225
203	0	85	200	165
204	0	120	200	200
205	0	280	200	360
206	0	440	200	520
207	0	170	200	250
208	0	30	200	110
209	0	95	200	175
21	0	580	200	660
210	0	140	200	220
211	0	230	200	310
212	0	360	200	440
213	0	140	200	220
214	0	120	200	200
215	0	75	200	155
216	0	435	200	515
217	0	360	200	440
218	0	280	200	360
219	0	65	200	145
22	0	45	200	125
220	0	55	200	135
221	0	180	200	260
222	0	365	200	445
223	0	470	200	550
224	0	90	200	170
225	0	205	200	285
226	0	200	200	280
227	0	240	200	320
228	0	335	200	415
229	0	450	200	530
23	0	150	200	230
230	0	570	200	650
231	0	495	200	575
232	0	440	200	520
233	0	385	200	465
234	0	275	200	355
235	0	175	200	255
236	0	50	200	130
237	0	20	200	100
238	0	40	200	120
239	0	130	200	210
24	0	150	200	230
240	0	275	200	355
241	0	375	200	455
242	0	415	200	495
243	0	475	200	555
244	0	235	200	315
25	0	165	200	245
26	0	280	200	360
27	0	225	200	305
28	0	205	200	285
29	0	50	200	130
30	0	105	200	185
31	0	280	200	360
32	0	100	200	180
33	0	265	200	345
34	0	135	200	215
35	0	350	200	430
36	0	120	200	200
37	0	90	200	170
38	0	405	200	485
39	0	40	200	120
39	0	205	200	285
40	0	335	200	415
41	0	35	200	115
42	0	85	200	165
43	0	15	200	95
43	0	225	200	305
44	0	80	200	160
45	0	75	200	155
45	0	205	200	285
46	0	45	200	125
46	0	180	200	260
47	0	265	200	345
47	0	390	200	470
48	0	270	200	350
49	0	345	200	425
5	0	90	200	170
5	0	710	200	790
50	0	355	200	435
51	0	415	200	495
52	0	250	200	330
52	0	440	200	520
53	0	240	200	320
54	0	130	200	210
55	0	270	200	350
56	0	215	200	295
57	0	230	200	310
58	0	280	200	360
59	0	310	200	390
6	0	580	200	660
6	0	675	200	755
60	0	380	200	460
61	0	500	200	580
62	0	420	200	500
63	0	130	200	210
64	0	150	200	230
65	0	340	200	420
66	0	315	200	395
67	0	80	200	160
68	0	380	200	460
69	0	345	200	425
7	0	525	200	605
7	0	680	200	760
70	0	320	200	400
72	0	115	200	195
8	0	670	200	750
9	0	45	200	125
9	0	610	200	690
