#region_id;width_center;height_center
03;550;100
06;250;300
09;780;315
15;160;260
18;810;170
21;610;360
27;130;140
30;610;280
33;360;330
39;420;160
43;160;410
45;500;55
48;670;75
58;530;400
60;745;420
62;585;150
66;100;100